class Core2Web{
        public static void main(String[] args){
                StringBuilder str = new  StringBuilder(200);
		str.append("Bytecode Is Platform Independent");
		str.setLength(20);
                System.out.println(str);
        }

}
