import java.io.*;


class codes{
    public static void main(String[] args)throws IOException {
        BufferedReader br=new BufferedReader(new InputStreamReader(System.in));
        System.out.println("Enter the number of rows ");
        int rows=Integer.parseInt(br.readLine());

        for (int i=1;i<=rows;i++){
            int num=4;
            char ch='D';
            int num1=1;
            char ch1='A';
            
            for (int j=1;j<=4;j++){
                if(i%2!=0){
                    System.out.print(ch--);
                    System.out.print(num-- +" ");
               
                }
                else {
                
                    System.out.print(ch1++);
                    System.out.print(num1++ +" ");
                   
                }
            
            }System.out.println();
        }
    
    }
}
