import java.io.*;

import java.util.*;

import javax.annotation.processing.SupportedOptions;


class codes{
    public static void main(String[] args)throws IOException {
        BufferedReader br=new BufferedReader(new InputStreamReader(System.in));
        System.out.println("Enter row");
        int row=Integer.parseInt(br.readLine());
        
        
        for(int i=1;i<=row;i++){
            for(int j=1;j<=i;j++){
                if(i==1 ||i==5){
                System.out.print("$");
                
                }else if(i==2||i==6){
                    System.out.print("@");
                    
                }else if(i==3||i==7){
                    System.out.print("&");
                    
                }else if(i==4||i==8){
                    System.out.print("#");
                    
                }
                
            }System.out.println();
        }
    }
}
