//O/P :  5  5  5  5
//       5  5  5  5
//       5  5  5  5

class Demo{

        public static void main(String[] args){

                int N1 = 3;
                int N2 = 4;
                for(int i = 1;i <= N1;i++){

                        for(int j =1;j <= N2;j++){

                                System.out.print("5  ");
                        }
                        System.out.println();
                }
        }
}