class Demo{

        public static void main(String[] args){

                int N1 = 4;
                for(int i = 1;i <= N1;i++){
                        int num = 9;
                        for(int j =1;j <= i;j++){

                                System.out.print(num-- +"  ");
                        }
                        System.out.println();
                }
        }
}