//7.Given an integer value as input.
//print fizz if it is divisible by 3.
//print buzz if it is divisible by 5.
//print fizz-buzz if it is divisible by both.
//if not then print "Not divisible by both".

class Div{

        public static void main(String[]args){

          int x = 15;
          if(x%3 == 0 && x%5 == 0){

                  System.out.println("Divisible by both");

          }else if(x%3 == 0){

                  System.out.println("Fizz");

          }else if(x%5 == 0){

                  System.out.println("Buzz");

          }else{
                  System.out.println("Not divisible by both");
          }
        }
}