import java.io.*;
import java.util.Collections;
import java.util.Arrays;
class Demo{

        public static void main(String[]args)throws IOException{

                BufferedReader br = new BufferedReader(new InputStreamReader(System.in));

                System.out.println("Enter Size of array : ");
                int size = Integer.parseInt(br.readLine());

                int[] arr = new int[size];
                System.out.println("Enter Elements : ");
                for(int i = 0;i < arr.length;i++){

                        arr[i] = Integer.parseInt(br.readLine());
                }

                int max = arr[0];
                for(int i = 0 ;i < arr.length;i++){

                        if(arr[i] > max){

                                max = arr[i];
                        }
                }

                System.out.println("max element : "+max);
        }
}