class Demo{

        public static void main(String[] args){

                int N1 = 4;
                int num = 1;
                for(int i = 1;i <= N1;i++){
                        int num1 = num;
                        for(int j =1;j <= i;j++){

                                System.out.print(num1++ +"  ");
                        }
                        num = num + 1;
                        System.out.println();
                }
        }
}